{
  "nLoops" : 4,
  "loops": {
    "3" : {
    "loopActions": ["SEND_TRIGGER"],
    "loopParams": [0,100,1]
    },
    "2": {
    "loopActions": ["SETUP_PARAM","CHANGE_BIN"],
    "loopParams": [0,60,1]
    },
    "1" : {
      "loopActions": ["SETUP_MASK"],
      "loopParams" : [0,319,1]
    },
    "0" : {
      "loopActions": ["CONFIGURE_MODULES_NO_ENABLE"],
      "loopParams": [0,1,1]
    } 
    }
  }